…
```r
library(tidyverse)
data(starwars)
```

===


```r
starwars %>% 
    select(name, height, mass, species)
```

```
# A tibble: 87 x 4
   name               height  mass species
   <chr>               <int> <dbl> <chr>  
 1 Luke Skywalker        172    77 Human  
 2 C-3PO                 167    75 Droid  
 3 R2-D2                  96    32 Droid  
 4 Darth Vader           202   136 Human  
 5 Leia Organa           150    49 Human  
 6 Owen Lars             178   120 Human  
 7 Beru Whitesun lars    165    75 Human  
 8 R5-D4                  97    32 Droid  
 9 Biggs Darklighter     183    84 Human  
10 Obi-Wan Kenobi        182    77 Human  
# ... with 77 more rows
```

===


```r
starwars %>% 
    select(name, height, mass, species) %>% 
    mutate(bmi = mass/(0.01*height)^2)
```

```
# A tibble: 87 x 5
   name               height  mass species   bmi
   <chr>               <int> <dbl> <chr>   <dbl>
 1 Luke Skywalker        172    77 Human    26.0
 2 C-3PO                 167    75 Droid    26.9
 3 R2-D2                  96    32 Droid    34.7
 4 Darth Vader           202   136 Human    33.3
 5 Leia Organa           150    49 Human    21.8
 6 Owen Lars             178   120 Human    37.9
 7 Beru Whitesun lars    165    75 Human    27.5
 8 R5-D4                  97    32 Droid    34.0
 9 Biggs Darklighter     183    84 Human    25.1
10 Obi-Wan Kenobi        182    77 Human    23.2
# ... with 77 more rows
```

===


```r
starwars %>% 
    select(name, height, mass, species) %>% 
    mutate(bmi = mass/(0.01*height)^2) %>% 
    arrange(desc(bmi))
```

```
# A tibble: 87 x 5
   name                  height  mass species          bmi
   <chr>                  <int> <dbl> <chr>          <dbl>
 1 Jabba Desilijic Tiure    175  1358 Hutt           443. 
 2 Dud Bolt                  94    45 Vulptereen      50.9
 3 Yoda                      66    17 Yoda's species  39.0
 4 Owen Lars                178   120 Human           37.9
 5 IG-88                    200   140 Droid           35  
 6 R2-D2                     96    32 Droid           34.7
 7 Grievous                 216   159 Kaleesh         34.1
 8 R5-D4                     97    32 Droid           34.0
 9 Jek Tono Porkins         180   110 Human           34.0
10 Darth Vader              202   136 Human           33.3
# ... with 77 more rows
```
…
===


```r
starwars %>% 
    select(name, height, mass, species) %>% 
    group_by(species) %>% 
    summarize(count = n(),
              avg_mass = mean(mass, na.rm = TRUE),
              max_height = max(height, na.rm = TRUE)) %>% 
    arrange(desc(count))
```

```
# A tibble: 38 x 4
   species  count avg_mass max_height
   <chr>    <int>    <dbl>      <dbl>
 1 Human       35     82.8        202
 2 Droid        5     69.8        200
 3 <NA>         5     48          183
 4 Gungan       3     74          224
 5 Kaminoan     2     88          229
 6 Mirialan     2     53.1        170
 7 Twi'lek      2     55          180
 8 Wookiee      2    124          234
 9 Zabrak       2     80          175
10 Aleena       1     15           79
# ... with 28 more rows
```
…
